<svg width="72" height="72" viewBox="0 0 72 72" fill="none" xmlns="http://www.w3.org/2000/svg">
<path d="M55 8H17.6668C15.0905 8.00299 13.003 10.0905 13 12.6668V57.4666C13 59.0132 14.2535 60.2667 15.8002 60.2667V63.0665C15.8002 63.5822 16.218 64 16.7333 64H55.9335C56.4488 64 56.8667 63.5822 56.8667 63.0665V60.2667C58.4129 60.2667 59.6668 59.0132 59.6668 57.4666V12.6668C59.6634 10.0905 57.5763 8.00299 55 8V8ZM17.6668 9.86664H55C56.5462 9.86664 57.8002 11.1202 57.8002 12.6668V19.2003H14.8666V12.6668C14.8666 11.1202 16.1202 9.86664 17.6668 9.86664ZM55 62.1334H17.6668V60.2667H55V62.1334ZM56.8667 58.4001H15.8002C15.2845 58.4001 14.8666 57.9822 14.8666 57.4666V21.0665H57.8002V57.4666C57.8002 57.9822 57.3823 58.4001 56.8667 58.4001V58.4001Z" fill="black"/>
<path d="M16.9335 17.5999H28.1334C28.649 17.5999 29.0669 17.1821 29.0669 16.6668V12.9335C29.0669 12.4178 28.649 12 28.1334 12H16.9335C16.4178 12 16 12.4178 16 12.9335V16.6668C16 17.1821 16.4178 17.5999 16.9335 17.5999ZM17.8666 13.8666H27.2003V15.7333H17.8666V13.8666Z" fill="black"/>
<path d="M33.7997 17.5999C35.3464 17.5999 36.5999 16.3464 36.5999 14.8002C36.5999 13.2535 35.3464 12 33.7997 12C32.2535 12 31 13.2535 31 14.8002C31 16.3464 32.2535 17.5999 33.7997 17.5999ZM33.7997 13.8666C34.3154 13.8666 34.7333 14.2845 34.7333 14.8002C34.7333 15.3154 34.3154 15.7333 33.7997 15.7333C33.2845 15.7333 32.8666 15.3154 32.8666 14.8002C32.8666 14.2845 33.2845 13.8666 33.7997 13.8666Z" fill="black"/>
<path d="M41.7997 17.5999C43.3464 17.5999 44.5999 16.3464 44.5999 14.8002C44.5999 13.2535 43.3464 12 41.7997 12C40.2535 12 39 13.2535 39 14.8002C39 16.3464 40.2535 17.5999 41.7997 17.5999ZM41.7997 13.8666C42.3154 13.8666 42.7333 14.2845 42.7333 14.8002C42.7333 15.3154 42.3154 15.7333 41.7997 15.7333C41.2845 15.7333 40.8666 15.3154 40.8666 14.8002C40.8666 14.2845 41.2845 13.8666 41.7997 13.8666Z" fill="black"/>
<path d="M46.9335 15.8666H48.8002C49.3154 15.8666 49.7333 15.4488 49.7333 14.9335C49.7333 14.4178 49.3154 14 48.8002 14H46.9335C46.4178 14 46 14.4178 46 14.9335C46 15.4488 46.4178 15.8666 46.9335 15.8666Z" fill="black"/>
<path d="M52.9335 15.8666H54.8002C55.3159 15.8666 55.7337 15.4488 55.7337 14.9335C55.7337 14.4178 55.3159 14 54.8002 14H52.9335C52.4178 14 52 14.4178 52 14.9335C52 15.4488 52.4178 15.8666 52.9335 15.8666V15.8666Z" fill="black"/>
<path d="M35.9331 25C27.686 25 21 31.6855 21 39.9331C21 48.1807 27.686 54.8666 35.9331 54.8666C44.1807 54.8666 50.8666 48.1807 50.8666 39.9331C50.8568 31.6898 44.1768 25.0098 35.9331 25V25ZM35.9331 53C28.7169 53 22.8666 47.1497 22.8666 39.9331C22.8666 32.7165 28.7169 26.8666 35.9331 26.8666C43.1497 26.8666 49 32.7165 49 39.9331C48.9923 47.1463 43.1467 52.9923 35.9331 53V53Z" fill="black"/>
<path d="M36.1334 28.0001C29.4393 27.9937 24.0068 33.415 24 40.1091C23.9987 41.6955 24.3085 43.2669 24.9122 44.7341C24.9177 44.7529 24.9122 44.7721 24.9194 44.7909C24.9271 44.8097 24.9446 44.8272 24.954 44.849C27.5534 51.0197 34.6632 53.9147 40.8339 51.3154C44.2869 49.8606 46.873 46.8912 47.8403 43.2716C47.8455 43.2562 47.8493 43.2404 47.8523 43.2246C49.5856 36.7783 45.7648 30.1474 39.3181 28.4145C38.2798 28.1355 37.2087 27.9958 36.1334 28.0001V28.0001ZM36.1334 29.8667C41.7901 29.8535 46.3868 34.4284 46.4001 40.0848C46.4018 40.8487 46.3185 41.61 46.151 42.3547C45.6644 42.5158 45.1867 42.7029 44.7202 42.9148C43.5093 43.5433 42.1644 43.8697 40.8002 43.8667C39.6385 43.8979 38.4909 43.607 37.4839 43.0268C36.2167 42.3214 34.7837 41.9672 33.3336 42.0001C30.9628 42.0967 28.6185 42.5367 26.3746 43.3066C24.6152 37.9233 27.553 32.1333 32.9363 30.3743C33.9685 30.0368 35.0477 29.8655 36.1334 29.8667V29.8667ZM36.1334 50.4002C32.371 50.3976 28.9108 48.3383 27.1138 45.0327C29.121 44.3495 31.2153 43.9569 33.3336 43.8667C34.4953 43.836 35.6429 44.1265 36.6495 44.7067C37.9171 45.4121 39.3501 45.7667 40.8002 45.7334C42.3677 45.7419 43.9157 45.3843 45.3204 44.6892C43.5905 48.1824 40.0316 50.3951 36.1334 50.4002Z" fill="black"/>
</svg>
