<svg width="554" height="256" viewBox="0 0 554 256" fill="none" xmlns="http://www.w3.org/2000/svg">
<path fill-rule="evenodd" clip-rule="evenodd" d="M114.859 173.018V141.013L106.268 145.308L94.1355 151.374V183.769L108.832 176.417V178.926L95.8982 185.389L98.7486 186.818L108.824 181.776V184.285L101.258 188.065L104.489 189.676L108.824 187.509V190.018L106.998 190.931L108.824 191.844V193.249V194.353V195.758L94.1276 203.111V206.342L114.851 195.981L114.859 173.018ZM530.608 116.947V118.043V171.907L539.199 167.611L551.339 161.545V129.182L536.642 136.535V134.026L549.6 127.547L546.75 126.117L536.642 131.167V128.658L544.241 124.863L541.009 123.251L536.642 125.435V122.926L538.492 121.997L536.642 121.068V119.686V118.551V117.169L551.339 109.817V106.585L530.608 116.947ZM537.77 119.107L541.001 120.718L551.339 115.549V112.318L537.77 119.107ZM543.51 121.981L546.742 123.593L551.331 121.298V118.066L543.51 121.981ZM549.259 124.847L551.339 125.887V123.807L549.259 124.847ZM553.578 127.015V129.524V139.869V185.516V187.017V197.362V243.009L551.331 244.128L536.634 251.481V248.972L551.331 241.619V238.769L536.634 246.121V243.612L551.331 236.26V233.028L536.634 240.381V237.872L551.331 230.519V227.288L536.634 234.64V232.131L551.331 224.779V221.547L530.608 231.909V254.879L529.488 255.443L528.988 255.189L528.369 254.879L507.646 244.517L506.526 243.954L505.407 244.517L484.684 254.879L484.064 255.189L483.564 255.443L482.437 254.879V252.37V198.506L473.846 202.801L461.706 208.867V242L476.402 249.353V251.862L461.706 244.509L460.205 243.755L459.458 244.128L444.762 251.481V248.972L459.458 241.619V238.769L444.762 246.121V243.612L459.458 236.26V233.028L444.762 240.381V237.872L459.458 230.519V227.288L444.762 234.64V232.131L459.458 224.779V221.547L438.735 231.909V254.879L437.616 255.443L437.116 255.189L436.496 254.879L415.773 244.517L414.654 243.954L413.526 244.517L392.803 254.879L392.184 255.189L391.683 255.443L390.564 254.879V252.37V198.506L381.973 202.801L369.833 208.867V242L384.53 249.353V251.862L369.833 244.509L368.332 243.755L367.586 244.128L352.889 251.481V248.972L367.586 241.619V240.873V238.761L352.889 246.113V243.604L367.586 236.252V233.02L352.889 240.373V237.864L367.586 230.511V227.28L352.889 234.632V232.123L367.586 224.771V221.539L346.863 231.901V254.871L345.743 255.435L345.243 255.181L344.624 254.871L323.901 244.509L322.781 243.946L321.661 244.509L300.938 254.871L300.319 255.181L299.819 255.435L298.691 254.871V252.362V198.498L290.1 202.793L277.96 208.859V241.992L292.657 249.345V251.854L277.96 244.501L276.46 243.747L275.713 244.12L261.016 251.473V248.964L275.713 241.611V238.761L261.016 246.113V243.604L275.713 236.252V233.02L261.016 240.373V237.864L275.713 230.511V227.28L261.016 234.632V232.123L275.713 224.771V221.539L254.99 231.901V254.871L253.871 255.435L253.37 255.181L252.751 254.871L232.028 244.509L230.908 243.946L229.781 244.509L209.058 254.871L208.438 255.181L207.938 255.435L206.819 254.871V252.362V198.498L198.228 202.793L186.088 208.859V241.992L200.784 249.345V251.854L186.088 244.501L184.587 243.747L183.841 244.12L169.144 251.473V248.964L183.841 241.611V240.865V238.753L169.144 246.105V243.596L183.841 236.244V233.012L169.144 240.365V237.856L183.841 230.503V227.272L169.144 234.624V232.115L183.841 224.763V221.531L163.117 231.893V254.863L161.998 255.427L161.498 255.173L160.878 254.863L140.155 244.501L139.036 243.938L137.916 244.501L117.193 254.863L116.574 255.173L116.073 255.427L114.946 254.863V252.354V198.49L106.355 202.785L94.2149 208.851V241.984L108.912 249.337V251.846L94.2149 244.493L92.7143 243.739L91.9679 244.112L77.2712 251.465V248.956L91.9679 241.603V238.753L77.2712 246.105V243.596L91.9679 236.244V233.012L77.2712 240.365V237.856L91.9679 230.503V227.272L77.2712 234.624V232.115L91.9679 224.763V221.531L71.2448 231.893V254.863L70.1252 255.427L69.625 255.173L69.0057 254.863L48.2826 244.501L47.163 243.938L46.0356 244.501L25.3124 254.863L24.6931 255.173L24.1929 255.427L23.0734 254.863V252.354V198.49L14.4824 202.785L2.34227 208.851V241.984L17.039 249.337V251.846L2.34227 244.493L0 243.398V240.889V230.543V184.897V183.396V173.05V128.444V125.935V115.589V69.9268V68.4261V58.0725V12.426L2.24699 11.3064L16.9438 3.95407V6.46308L2.24699 13.8154V16.6659L16.9438 9.31351V11.8225L2.24699 19.1828V22.4144L16.9438 15.062V17.571L2.24699 24.9234V28.1549L16.9438 20.8026V23.3116L2.24699 30.6639V33.8955L22.9701 23.5339V0.563733L24.0976 0L24.5978 0.254077L25.2171 0.563733L45.9403 10.9253L47.0598 11.489L48.1873 10.9253L68.9184 0.563733L69.5377 0.254077L70.0379 0L71.1654 0.563733V3.07274V56.9371L79.7563 52.6416L91.8965 46.5755V13.4343L77.1918 6.08991V3.57296L91.8885 10.9253L93.3892 11.6796L94.1355 11.3064L108.832 3.95407V6.46308L94.1355 13.8154V16.6659L108.832 9.31351V11.8225L94.1355 19.1749V22.4064L108.832 15.0541V17.5631L94.1355 24.9154V28.147L108.832 20.7946V23.3036L94.1355 30.656V33.8875L114.859 23.5259V0.563733L115.986 0L116.486 0.254077L117.106 0.563733L137.829 10.9253L138.948 11.489L140.068 10.9253L160.791 0.563733L161.41 0.254077L161.926 0L163.046 0.563733V3.07274V56.9371L171.637 52.6416L183.777 46.5755V13.4343L169.08 6.08197V3.57296L183.777 10.9253L185.278 11.6796L186.024 11.3064L200.721 3.95407V6.46308L186.024 13.8154V14.5618V16.6738L200.721 9.32145V11.8305L186.024 19.1828V22.4144L200.721 15.062V17.571L186.024 24.9234V28.1549L200.721 20.8026V23.3116L186.024 30.6639V33.8955L206.747 23.5339V0.563733L207.875 0L208.375 0.254077L208.994 0.563733L229.717 10.9253L230.837 11.489L231.964 10.9253L252.688 0.563733L253.307 0.254077L253.815 0L254.942 0.563733V3.07274V56.9371L263.533 52.6416L275.674 46.5755V13.4343L260.977 6.08197V3.57296L275.674 10.9253L277.174 11.6796L277.921 11.3064L292.617 3.95407V6.46308L277.921 13.8154V16.6659L292.617 9.31351V11.8225L277.921 19.1749V22.4064L292.617 15.0541V17.5631L277.921 24.9154V28.147L292.617 20.7946V23.3036L277.921 30.656V33.8875L298.644 23.5259V0.563733L299.763 0L300.263 0.254077L300.883 0.563733L321.606 10.9253L322.725 11.489L323.845 10.9253L344.568 0.563733L345.187 0.254077L345.711 0L346.831 0.563733V3.07274V56.9371L355.422 52.6416L367.562 46.5755V13.4343L352.865 6.08197V3.57296L367.562 10.9253L369.063 11.6796L369.809 11.3064L384.506 3.95407V6.46308L369.809 13.8154V14.5618V16.6659L384.506 9.31351V11.8225L369.809 19.1749V22.4064L384.506 15.0541V17.5631L369.809 24.9154V28.147L384.506 20.7946V23.3036L369.809 30.656V33.8875L390.532 23.5259V0.563733L391.652 0L392.152 0.254077L392.771 0.563733L413.494 10.9253L414.614 11.489L415.741 10.9253L436.465 0.563733L437.084 0.254077L437.6 0L438.727 0.563733V3.07274V56.9371L447.318 52.6416L459.458 46.5755V13.4343L444.762 6.08197V3.57296L459.458 10.9253L460.959 11.6796L461.706 11.3064L476.394 3.95407V6.46308L461.698 13.8154V16.6659L476.394 9.32145V11.8305L461.698 19.1828V22.4144L476.394 15.062V17.571L461.698 24.9234V28.1549L476.394 20.8026V23.3116L461.698 30.6639V33.8955L482.421 23.5339V0.563733L483.54 0L484.04 0.254077L484.66 0.563733L505.383 10.9253L506.502 11.489L507.622 10.9253L528.345 0.563733L528.964 0.254077L529.488 0L530.608 0.563733V3.07274V56.9371L539.199 52.6416L551.339 46.5755V13.4343L536.642 6.08197V3.57296L551.339 10.9253L553.586 12.0448V14.5538V24.8995V70.5461V72.0467V82.3924V127.015H553.578ZM551.339 186.643L536.642 193.996V191.487L549.576 185.024L546.726 183.594L536.65 188.636V186.127L544.217 182.34L540.985 180.728L536.65 182.896V180.387L538.476 179.474L536.65 178.561V177.155V176.052V174.646L551.347 167.294V164.062L530.624 174.424V197.394V229.408L539.215 225.112L551.355 219.046V186.643H551.339ZM551.339 183.388V181.276L549.227 182.332L551.339 183.388ZM546.718 181.077L551.339 178.767V175.535L543.487 179.458L546.718 181.077ZM540.97 178.203L551.331 173.018V169.787L537.738 176.583L540.97 178.203ZM528.361 197.386L507.638 187.024V240.889L518.77 235.323L528.361 230.527V197.386ZM507.638 125.887L528.361 115.526V82.4162L507.638 72.0546V125.887ZM528.361 173.026V139.917L507.638 129.555V153.065V173.042V183.388L528.361 173.026ZM528.361 175.535L519.77 179.831L509.019 185.206L528.353 194.877V175.535H528.361ZM482.421 173.018V141.013L473.83 145.308L461.698 151.374V183.769L476.394 176.417V178.926L463.46 185.389L466.311 186.818L476.386 181.776V184.285L468.82 188.065L472.051 189.676L476.386 187.509V190.018L474.56 190.931L476.386 191.844V193.249V194.353V195.758L461.69 203.111V206.342L482.413 195.981L482.421 173.018ZM475.291 193.821L472.059 192.209L461.698 197.394V200.626L475.291 193.821ZM469.542 190.947L466.311 189.335L461.69 191.645V194.877L469.542 190.947ZM463.802 188.073L461.698 187.017V189.129L463.802 188.073ZM461.69 126.268L476.386 118.916V121.425L463.428 127.904L466.279 129.333L476.386 124.275V126.784L468.788 130.58L472.019 132.191L476.386 130.008V132.517L474.536 133.446L476.386 134.375V135.772V136.908V138.289L461.69 145.642V148.873L482.413 138.512V137.416V83.5516L473.822 87.8471L461.682 93.9132V126.268H461.69ZM461.698 129.555V131.636L463.778 130.596L461.698 129.555ZM466.287 131.85L461.698 134.145V137.376L469.518 133.462L466.287 131.85ZM472.027 134.716L461.698 139.885V143.117L475.259 136.336L472.027 134.716ZM484.668 115.526L505.391 125.887V102.377V82.4003V72.0546L494.259 77.6205L484.668 82.4162V115.526ZM484.668 194.869L497.284 188.557L504.001 185.198L484.668 175.527V194.869ZM505.391 183.388V139.869V129.555L484.668 139.917V173.026L505.391 183.388ZM484.668 137.376L493.259 133.081L504.009 127.705L484.676 118.035V137.376H484.668ZM484.668 252.37L505.391 242.008V240.881V217.347V197.37V187.024L494.259 192.59L484.668 197.386V252.37ZM528.361 233.028L519.77 237.324L509.019 242.699L528.353 252.37V233.028H528.361ZM438.719 116.947V118.043V171.907L447.31 167.611L459.451 161.545V129.182L444.754 136.535V134.026L457.712 127.547L454.861 126.117L444.754 131.167V128.658L452.352 124.863L449.121 123.251L444.754 125.435V122.926L446.604 121.997L444.754 121.068V119.686V118.551V117.169L459.451 109.817V106.585L438.719 116.947ZM445.881 119.107L449.113 120.718L459.451 115.549V112.318L445.881 119.107ZM451.622 121.981L454.853 123.593L459.443 121.298V118.066L451.622 121.981ZM457.37 124.847L459.451 125.887V123.807L457.37 124.847ZM459.443 186.643L444.746 193.996V191.487L457.68 185.024L454.83 183.594L444.754 188.636V186.127L452.321 182.34L449.089 180.728L444.754 182.896V180.387L446.58 179.474L444.754 178.561V177.155V176.052V174.646L459.451 167.294V164.062L438.727 174.424V197.394V229.408L447.318 225.112L459.458 219.046V186.643H459.443ZM459.451 183.388V181.276L457.339 182.332L459.451 183.388ZM454.83 181.077L459.451 178.767V175.535L451.598 179.458L454.83 181.077ZM449.081 178.203L459.443 173.018V169.787L445.85 176.583L449.081 178.203ZM436.472 197.386L415.749 187.024V240.889L426.881 235.323L436.472 230.527V197.386ZM415.749 125.887L436.472 115.526V82.4162L415.749 72.0546V125.887ZM415.749 129.555V183.388L426.881 177.822L436.472 173.026V139.917L415.749 129.555ZM427.159 180.188L417.139 185.198L436.472 194.869V175.535L427.159 180.188ZM390.532 173.026V141.013L381.941 145.308L369.809 151.374V183.769L384.506 176.417V178.926L371.572 185.389L374.422 186.818L384.498 181.776V184.285L376.931 188.073L380.163 189.684L384.498 187.517V190.026L382.672 190.939L384.498 191.852V194.361V195.766L369.801 203.119V206.35L390.524 195.989V194.861V173.026H390.532ZM383.402 193.821L380.171 192.209L369.809 197.394V200.626L383.402 193.821ZM377.654 190.947L374.422 189.335L369.801 191.645V194.877L377.654 190.947ZM371.913 188.073L369.801 187.017V189.129L371.913 188.073ZM369.801 126.268L384.498 118.916V121.425L371.54 127.904L374.39 129.333L384.498 124.283V126.792L376.899 130.588L380.131 132.199L384.498 130.016V132.525L382.648 133.454L384.498 134.383V135.772V138.281L369.801 145.634V148.865L390.524 138.504V137.408V115.526V83.5437L381.933 87.8392L369.793 93.9053V126.268H369.801ZM369.801 131.636L371.881 130.596L369.801 129.555V131.636ZM374.398 131.85L369.809 134.145V137.376L377.63 133.462L374.398 131.85ZM380.139 134.716L369.809 139.885V143.117L383.37 136.336L380.139 134.716ZM392.779 115.526L413.502 125.887V72.0546L402.371 77.6205L392.779 82.4162V115.526ZM413.502 183.388V139.869V129.555L392.779 139.917V173.026L413.502 183.388ZM392.779 137.376L401.37 133.081L412.121 127.705L392.787 118.035V137.376H392.779ZM367.554 219.03V186.635L352.857 193.988V191.479L365.791 185.016L362.941 183.587L352.865 188.628V186.119L360.432 182.332L357.2 180.72L352.865 182.888V180.379L354.691 179.466L352.865 178.553V177.147V176.044V174.638L367.562 167.286V164.054L346.839 174.416V197.386V229.4L355.43 225.104L367.554 219.03ZM392.779 252.37L413.502 242.008V187.024L402.371 192.59L392.779 197.386V252.37ZM392.779 194.869L401.37 190.574L412.121 185.198L392.787 175.527V194.869H392.779ZM436.472 233.028L427.882 237.324L417.131 242.699L436.465 252.37V233.028H436.472ZM551.339 71.6735L536.642 79.0259V76.5169L549.576 70.0538L546.726 68.6246L536.65 73.6664V71.1574L544.217 67.3701L540.985 65.7583L536.65 67.9259V65.4169L538.476 64.5038L536.65 63.5907V62.1853V61.0817V59.6763L551.347 52.324V49.0924L530.624 59.454V82.4242V114.438L539.215 110.142L551.355 104.076V71.6735H551.339ZM551.339 68.4182V66.3141L549.227 67.3701L551.339 68.4182ZM546.718 66.1077L551.339 63.7971V60.5656L543.487 64.4879L546.718 66.1077ZM540.97 63.2413L551.331 58.0566V54.8251L537.738 61.6216L540.97 63.2413ZM528.361 3.07274L507.638 13.4343V14.5618V38.0957V58.0725V68.4182L528.361 58.0566V3.07274ZM528.361 60.5735L519.77 64.869L509.019 70.2443L528.353 79.9152V60.5735H528.361ZM482.421 58.0566V26.0429L473.83 30.3384L461.698 36.4045V68.7993L476.394 61.4549V63.9639L463.46 70.427L466.311 71.8561L476.394 66.8143V69.3233L468.828 73.1027L472.059 74.7145L476.394 72.5469V75.0559L474.568 75.969L476.394 76.8821V78.2875V79.3911V80.7965L461.698 88.1488V91.3804L482.421 81.0188V58.0566ZM475.291 78.8512L472.059 77.2315L461.698 82.4162V85.6478L475.291 78.8512ZM469.542 75.9849L466.311 74.3731L461.69 76.6836V79.9152L469.542 75.9849ZM463.802 73.1106L461.698 72.0546V74.1667L463.802 73.1106ZM484.668 79.9072L497.284 73.595L504.001 70.2364L484.668 60.5656V79.9072ZM505.391 68.4182V24.9075V14.5618L494.259 20.1277L484.668 24.9234V58.0566L505.391 68.4182ZM484.668 22.4144L493.259 18.1189L504.009 12.7435L484.668 3.07274V22.4144ZM528.361 118.066L519.77 122.362L509.019 127.737L528.353 137.408V118.066H528.361ZM459.443 71.6735L444.746 79.0259V76.5169L457.68 70.0538L454.83 68.6246L444.754 73.6664V71.1574L452.321 67.3701L449.089 65.7504L444.754 67.918V65.4089L446.58 64.4959L444.754 63.5828V62.1774V61.0738V59.6684L459.451 52.316V49.0845L438.727 59.4461V82.4162V114.43L447.318 110.134L459.458 104.068V71.6735H459.443ZM459.451 68.4182V66.3062L457.339 67.3701L459.451 68.4182ZM454.83 66.1077L459.451 63.7971V60.5656L451.598 64.4879L454.83 66.1077ZM449.081 63.2413L459.443 58.0566V54.8251L445.85 61.6216L449.081 63.2413ZM436.472 3.07274L415.749 13.4343V68.4182L426.881 62.8523L436.472 58.0566V3.07274ZM436.472 60.5735L427.882 64.869L417.131 70.2443L436.465 79.9152V60.5735H436.472ZM390.532 58.0566V26.0429L381.941 30.3384L369.809 36.4045V68.7993L384.506 61.4469V63.9559L371.572 70.419L374.422 71.8482L384.498 66.8064V69.3154L376.931 73.1027L380.163 74.7145L384.498 72.5469V75.0559L382.672 75.969L384.498 76.8821V79.3911V80.7965L369.801 88.1488V91.3804L390.524 81.0188V79.8913V58.0566H390.532ZM383.402 78.8512L380.171 77.2394L369.809 82.4242V85.6557L383.402 78.8512ZM377.654 75.9849L374.422 74.3731L369.801 76.6836V79.9152L377.654 75.9849ZM371.913 73.1106L369.801 72.0546V74.1667L371.913 73.1106ZM413.502 68.4182V24.9075V14.5618L402.371 20.1277L392.779 24.9234V58.0566L413.502 68.4182ZM392.779 22.4144L401.37 18.1189L412.121 12.7435L392.779 3.07274V22.4144ZM367.554 125.887V123.807L365.474 124.847L367.554 125.887ZM367.554 121.298V118.066L359.733 121.981L362.965 123.593L367.554 121.298ZM367.554 115.557V112.326L353.985 119.107L357.216 120.718L367.554 115.557ZM367.554 109.809V106.577L346.831 116.939V118.035V171.899L355.422 167.603L367.562 161.537V129.174L352.865 136.527V134.018L365.823 127.539L362.973 126.11L352.865 131.159V128.65L360.464 124.855L357.232 123.243L352.865 125.427V122.918L354.715 121.989L352.865 121.06V119.678V118.543V117.161L367.554 109.809ZM367.554 104.068V71.6735L352.857 79.0259V76.5169L365.791 70.0538L362.941 68.6246L352.865 73.6664V71.1574L360.432 67.3701L357.2 65.7583L352.865 67.9259V65.4169L354.691 64.5038L352.865 63.5907V62.1853V61.0817V59.6763L367.562 52.324V49.0924L346.839 59.454V82.4242V114.438L355.43 110.142L367.554 104.068ZM392.779 79.9072L401.37 75.6117L412.121 70.2364L392.787 60.5656V79.9072H392.779ZM436.472 118.066L427.882 122.362L417.131 127.737L436.465 137.408V118.066H436.472ZM367.554 183.388V181.276L365.442 182.332L367.554 183.388ZM362.941 181.077L367.562 178.767V175.535L359.709 179.458L362.941 181.077ZM357.193 178.203L367.554 173.018V169.787L353.961 176.583L357.193 178.203ZM344.584 197.386L323.861 187.024V240.889L334.993 235.323L344.584 230.527V197.386ZM323.861 125.887L344.584 115.526V82.4162L323.861 72.0546V125.887ZM344.584 173.026V139.917L323.861 129.555V153.065V173.042V183.388L344.584 173.026ZM344.584 175.535L335.993 179.831L325.242 185.206L344.576 194.877V175.535H344.584ZM298.644 173.018V141.013L290.053 145.308L277.921 151.374V183.769L292.617 176.417V178.926L279.683 185.389L282.534 186.818L292.609 181.776V184.285L285.043 188.065L288.274 189.676L292.609 187.509V190.018L290.783 190.931L292.609 191.844V193.249V194.353V195.758L277.913 203.111V206.342L298.636 195.981L298.644 173.018ZM291.506 193.821L288.274 192.209L277.913 197.394V200.626L291.506 193.821ZM285.765 190.947L282.534 189.335L277.913 191.645V194.877L285.765 190.947ZM280.025 188.073L277.921 187.017V189.129L280.025 188.073ZM277.913 126.268L292.609 118.916V121.425L279.651 127.904L282.502 129.333L292.609 124.275V126.784L285.011 130.58L288.242 132.191L292.609 130.008V132.517L290.759 133.446L292.609 134.375V135.772V136.908V138.289L277.913 145.642V148.873L298.636 138.512V137.416V83.5516L290.045 87.8471L277.905 93.9132V126.268H277.913ZM277.913 129.555V131.636L279.993 130.596L277.913 129.555ZM282.51 131.85L277.921 134.145V137.376L285.741 133.462L282.51 131.85ZM288.25 134.716L277.921 139.885V143.117L291.482 136.336L288.25 134.716ZM300.891 115.526L321.614 125.887V102.377V82.4003V72.0546L310.482 77.6205L300.891 82.4162V115.526ZM300.891 194.869L313.507 188.557L320.224 185.198L300.891 175.527V194.869ZM321.614 183.388V139.869V129.555L300.891 139.917V173.026L321.614 183.388ZM300.891 137.376L309.482 133.081L320.232 127.705L300.899 118.035V137.376H300.891ZM300.891 252.37L321.614 242.008V240.881V217.347V197.37V187.024L310.482 192.59L300.891 197.386V252.37ZM344.584 233.028L335.993 237.324L325.242 242.699L344.576 252.37V233.028H344.584ZM254.942 116.947V118.043V171.907L263.533 167.611L275.674 161.545V129.182L260.977 136.535V134.026L273.935 127.547L271.084 126.117L260.977 131.167V128.658L268.575 124.863L265.344 123.251L260.977 125.435V122.926L262.827 121.997L260.977 121.068V119.686V118.551V117.169L275.674 109.817V106.585L254.942 116.947ZM262.104 119.107L265.336 120.718L275.666 115.549V112.318L262.104 119.107ZM267.845 121.981L271.076 123.593L275.666 121.298V118.066L267.845 121.981ZM273.585 124.847L275.666 125.887V123.807L273.585 124.847ZM275.666 186.643L260.969 193.996V191.487L273.903 185.024L271.052 183.594L260.977 188.636V186.127L268.543 182.34L265.312 180.728L260.977 182.896V180.387L262.803 179.474L260.977 178.561V177.155V176.052V174.646L275.674 167.294V164.062L254.95 174.424V197.394V229.408L263.541 225.112L275.681 219.046V186.643H275.666ZM275.666 183.388V181.276L273.554 182.332L275.666 183.388ZM271.045 181.077L275.666 178.767V175.535L267.813 179.458L271.045 181.077ZM265.304 178.203L275.666 173.018V169.787L262.072 176.583L265.304 178.203ZM252.695 197.386L231.972 187.024V240.889L243.104 235.323L252.695 230.527V197.386ZM231.972 125.887L252.695 115.526V82.4162L231.972 72.0546V125.887ZM231.972 129.555V183.388L243.104 177.822L252.695 173.026V139.917L231.972 129.555ZM243.382 180.188L233.362 185.198L252.695 194.869V175.535L243.382 180.188ZM206.755 173.026V141.013L198.164 145.308L186.024 151.374V183.769L200.721 176.417V178.926L187.787 185.389L190.637 186.818L200.713 181.776V184.285L193.146 188.073L196.378 189.684L200.713 187.517V190.026L198.887 190.939L200.713 191.852V194.361V195.766L186.016 203.119V206.35L206.739 195.989V194.861V173.026H206.755ZM199.617 193.821L196.386 192.209L186.024 197.394V200.626L199.617 193.821ZM193.877 190.947L190.645 189.335L186.024 191.645V194.877L193.877 190.947ZM188.136 188.073L186.024 187.017V189.129L188.136 188.073ZM186.024 126.268L200.721 118.916V121.425L187.763 127.904L190.613 129.333L200.721 124.283V126.792L193.122 130.588L196.354 132.199L200.721 130.016V132.525L198.871 133.454L200.721 134.383V135.772V138.281L186.024 145.634V148.865L206.747 138.504V137.408V115.526V83.5437L198.156 87.8392L186.016 93.9053V126.268H186.024ZM186.024 131.636L188.104 130.596L186.024 129.555V131.636ZM190.613 131.85L186.024 134.145V137.376L193.845 133.462L190.613 131.85ZM196.362 134.716L186.024 139.885V143.117L199.585 136.336L196.362 134.716ZM208.994 115.526L229.717 125.887V72.0546L218.586 77.6205L208.994 82.4162V115.526ZM229.725 183.388V139.869V129.555L209.002 139.917V173.026L229.725 183.388ZM208.994 137.376L217.585 133.081L228.336 127.705L209.002 118.035V137.376H208.994ZM208.994 252.37L229.717 242.008V187.024L218.586 192.59L208.994 197.386V252.37ZM208.994 194.869L217.585 190.574L228.336 185.198L209.002 175.527V194.869H208.994ZM252.695 233.028L244.104 237.324L233.354 242.699L252.688 252.37V233.028H252.695ZM367.554 68.4182V66.3141L365.442 67.3701L367.554 68.4182ZM362.941 66.1077L367.562 63.7971V60.5656L359.709 64.4879L362.941 66.1077ZM357.193 63.2413L367.554 58.0566V54.8251L353.961 61.6216L357.193 63.2413ZM344.584 3.07274L323.861 13.4343V14.5618V38.0957V58.0725V68.4182L344.584 58.0566V3.07274ZM344.584 60.5735L335.993 64.869L325.242 70.2443L344.576 79.9152V60.5735H344.584ZM298.644 58.0566V26.0429L290.053 30.3384L277.921 36.4045V68.7993L292.617 61.4469V63.9559L279.683 70.419L282.534 71.8482L292.609 66.8064V69.3154L285.043 73.0948L288.274 74.7066L292.609 72.539V75.048L290.783 75.9611L292.609 76.8742V78.2795V79.3832V80.7885L277.913 88.1409V91.3724L298.636 81.0109L298.644 58.0566ZM291.506 78.8512L288.274 77.2315L277.913 82.4162V85.6478L291.506 78.8512ZM285.765 75.9849L282.534 74.3731L277.913 76.6836V79.9152L285.765 75.9849ZM280.025 73.1106L277.921 72.0546V74.1667L280.025 73.1106ZM300.891 79.9072L313.507 73.595L320.224 70.2364L300.891 60.5656V79.9072ZM321.614 68.4182V24.9075V14.5618L310.482 20.1277L300.891 24.9234V58.0566L321.614 68.4182ZM300.891 22.4144L309.482 18.1189L320.232 12.7435L300.891 3.07274V22.4144ZM344.584 118.066L335.993 122.362L325.242 127.737L344.576 137.408V118.066H344.584ZM275.666 71.6735L260.969 79.0259V76.5169L273.903 70.0538L271.052 68.6246L260.977 73.6664V71.1574L268.543 67.3701L265.312 65.7504L260.977 67.918V65.4089L262.803 64.4959L260.977 63.5828V62.1774V61.0738V59.6684L275.674 52.316V49.0845L254.95 59.4461V82.4162V114.43L263.541 110.134L275.681 104.068V71.6735H275.666ZM275.666 68.4182V66.3062L273.554 67.3622L275.666 68.4182ZM271.045 66.1077L275.666 63.7971V60.5656L267.813 64.4879L271.045 66.1077ZM265.304 63.2413L275.666 58.0566V54.8251L262.072 61.6216L265.304 63.2413ZM252.695 3.07274L231.972 13.4343V68.4182L243.104 62.8523L252.695 58.0566V3.07274ZM252.695 60.5735L244.104 64.869L233.354 70.2443L252.688 79.9152V60.5735H252.695ZM206.755 58.0566V26.0429L198.164 30.3384L186.024 36.4045V68.7993L200.721 61.4469V63.9559L187.787 70.419L190.637 71.8482L200.713 66.8064V69.3154L193.146 73.1027L196.378 74.7145L200.713 72.5469V75.0559L198.887 75.969L200.713 76.8821V79.3911V80.7965L186.016 88.1488V91.3804L206.739 81.0188V79.8913V58.0566H206.755ZM199.617 78.8512L196.386 77.2394L186.024 82.4242V85.6557L199.617 78.8512ZM193.877 75.9849L190.645 74.3731L186.024 76.6836V79.9152L193.877 75.9849ZM188.136 73.1106L186.024 72.0546V74.1667L188.136 73.1106ZM229.725 68.4182V24.9075V14.5618L218.594 20.1277L209.002 24.9234V58.0566L229.725 68.4182ZM208.994 22.4144L217.585 18.1189L228.336 12.7435L208.994 3.07274V22.4144ZM208.994 79.9072L217.585 75.6117L228.336 70.2364L209.002 60.5656V79.9072H208.994ZM163.054 116.947V118.043V171.907L171.645 167.611L183.785 161.545V129.182L169.088 136.535V134.026L182.046 127.547L179.196 126.117L169.088 131.167V128.658L176.687 124.863L173.455 123.251L169.088 125.435V122.926L170.938 121.997L169.088 121.068V119.686V118.551V117.169L183.785 109.817V106.585L163.054 116.947ZM170.216 119.107L173.447 120.718L183.785 115.549V112.318L170.216 119.107ZM175.956 121.981L179.188 123.593L183.777 121.298V118.066L175.956 121.981ZM181.697 124.847L183.777 125.887V123.807L181.697 124.847ZM183.777 186.643L169.08 193.996V191.487L182.014 185.024L179.164 183.594L169.088 188.636V186.127L176.655 182.34L173.423 180.728L169.088 182.896V180.387L170.914 179.474L169.088 178.561V177.155V176.052V174.646L183.785 167.294V164.062L163.062 174.424V197.394V229.408L171.653 225.112L183.793 219.046V186.643H183.777ZM183.777 183.388V181.276L181.665 182.332L183.777 183.388ZM179.156 181.077L183.777 178.767V175.535L175.924 179.458L179.156 181.077ZM173.415 178.203L183.777 173.018V169.787L170.184 176.583L173.415 178.203ZM160.807 197.386L140.084 187.024V210.558V230.535V240.881L151.215 235.315L160.807 230.519V197.386ZM137.837 183.388V159.854V139.877V129.563L117.114 139.925V173.034L137.837 183.388ZM140.084 125.887L160.807 115.526V82.4162L140.084 72.0546V95.5885V115.565V125.887ZM107.729 193.821L104.497 192.209L94.1355 197.394V200.626L107.729 193.821ZM101.988 190.947L98.7565 189.335L94.1355 191.645V194.877L101.988 190.947ZM96.2475 188.073L94.1435 187.017V189.129L96.2475 188.073ZM94.1355 126.268L108.832 118.916V121.425L95.8744 127.904L98.7248 129.333L108.832 124.275V126.784L101.234 130.58L104.465 132.191L108.832 130.008V132.517L106.982 133.446L108.832 134.375V135.772V136.908V138.289L94.1355 145.642V148.873L114.859 138.512V137.416V83.5516L106.268 87.8471L94.1276 93.9132V126.268H94.1355ZM94.1355 129.555V131.636L96.2158 130.596L94.1355 129.555ZM98.7248 131.85L94.1355 134.145V137.376L101.956 133.462L98.7248 131.85ZM104.473 134.716L94.1435 139.885V143.117L107.705 136.336L104.473 134.716ZM117.106 115.526L137.829 125.887V72.0546L126.697 77.6205L117.106 82.4162V115.526ZM140.084 183.388L160.807 173.026V139.917L140.084 129.555V183.388ZM160.807 194.869V175.535L152.216 179.831L141.465 185.206L160.807 194.869ZM22.9701 195.997V194.869V173.018V141.013L14.3792 145.308L2.23905 151.374V183.769L16.9358 176.417V178.926L4.01759 185.397L6.86802 186.826L16.9438 181.784V184.293L9.37703 188.08L12.6086 189.692L16.9438 187.525V190.034L15.1176 190.947L16.9438 191.86V194.369V195.774L2.24699 203.127V206.358L22.9701 195.997ZM71.1654 116.947V118.043V171.907L79.7563 167.611L91.8965 161.545V129.182L77.1997 136.535V134.026L90.1576 127.547L87.3072 126.117L77.1997 131.167V128.658L84.7982 124.863L81.5667 123.251L77.1997 125.435V122.926L79.0497 121.997L77.1997 121.068V119.686V118.551V117.169L91.8965 109.817V106.585L71.1654 116.947ZM78.3272 119.107L81.5587 120.718L91.8965 115.549V112.318L78.3272 119.107ZM84.0677 121.981L87.2993 123.593L91.8885 121.298V118.066L84.0677 121.981ZM89.8083 124.847L91.8885 125.887V123.807L89.8083 124.847ZM91.8885 186.643L77.1918 193.996V191.487L90.1259 185.024L87.2754 183.594L77.1997 188.636V186.127L84.7664 182.34L81.5349 180.728L77.1997 182.896V180.387L79.0259 179.474L77.1997 178.561V177.155V176.052V174.646L91.8965 167.294V164.062L71.1733 174.424V197.394V229.408L79.7643 225.112L91.9044 219.046V186.643H91.8885ZM91.8885 183.388V181.276L89.7765 182.332L91.8885 183.388ZM87.2675 181.077L91.8885 178.767V175.535L84.036 179.458L87.2675 181.077ZM81.5269 178.203L91.8885 173.018V169.787L78.2954 176.583L81.5269 178.203ZM68.9184 197.386L48.1952 187.024V210.558V230.535V240.881L59.327 235.315L68.9184 230.519V197.386ZM45.9482 183.388V159.854V139.877V129.563L25.2251 139.925V173.034L45.9482 183.388ZM48.1873 125.887L68.9104 115.526V82.4162L48.1952 72.0546V95.5885V115.565V125.887H48.1873ZM15.8401 193.821L12.6086 192.209L2.24699 197.386V200.618L15.8401 193.821ZM10.0996 190.947L6.86802 189.335L2.24699 191.645V194.877L10.0996 190.947ZM4.35107 188.073L2.23905 187.017V189.129L4.35107 188.073ZM68.9184 139.917L48.1952 129.555V183.388L59.327 177.822L68.9184 173.026V139.917ZM2.24699 126.268L16.9438 118.916V121.425L3.98583 127.912L6.83626 129.341L16.9438 124.291V126.8L9.34527 130.596L12.5768 132.207L16.9438 130.024V132.533L15.0938 133.462L16.9438 134.391V135.772V138.281L2.24699 145.634V148.865L22.9701 138.504V137.408V115.526V83.5437L14.3792 87.8392L2.23905 93.9053V126.268H2.24699ZM2.24699 129.555V131.636L4.32725 130.596L2.24699 129.555ZM6.83626 131.85L2.24699 134.145V137.376L10.0678 133.462L6.83626 131.85ZM12.5768 134.716L2.23905 139.885V143.117L15.8004 136.336L12.5768 134.716ZM25.2171 115.526L45.9403 125.887V72.0546L34.8085 77.6205L25.2171 82.4162V115.526ZM68.9184 175.535L59.6049 180.196L49.5847 185.206L68.9184 194.877V175.535ZM114.859 58.0566V26.0429L106.268 30.3384L94.1355 36.4045V68.7993L108.832 61.4469V63.9559L95.8982 70.419L98.7486 71.8482L108.824 66.8064V69.3154L101.258 73.0948L104.489 74.7066L108.824 72.539V75.048L106.998 75.9611L108.824 76.8742V78.2795V79.3832V80.7885L94.1276 88.1409V91.3724L114.851 81.0109L114.859 58.0566ZM183.777 71.6735L169.08 79.0259V76.5169L182.014 70.0538L179.164 68.6246L169.088 73.6664V71.1574L176.655 67.3701L173.423 65.7583L169.088 67.9259V65.4169L170.914 64.5038L169.088 63.5907V62.1853V61.0817V59.6763L183.785 52.324V49.0924L163.062 59.454V82.4242V114.438L171.653 110.142L183.793 104.076V71.6735H183.777ZM183.777 68.4182V66.3141L181.665 67.3701L183.777 68.4182ZM179.156 66.1077L183.777 63.7971V60.5656L175.924 64.4879L179.156 66.1077ZM173.415 63.2413L183.777 58.0566V54.8251L170.184 61.6216L173.415 63.2413ZM137.837 68.4182V44.8843V24.9075V14.5618L126.705 20.1277L117.114 24.9234V58.0566L137.837 68.4182ZM107.729 78.8512L104.497 77.2315L94.1355 82.4162V85.6478L107.729 78.8512ZM101.988 75.9849L98.7565 74.3731L94.1355 76.6836V79.9152L101.988 75.9849ZM96.2475 73.1106L94.1435 72.0546V74.1667L96.2475 73.1106ZM140.084 68.4182L160.807 58.0566V3.07274L140.084 13.4343V68.4182ZM160.807 79.9072V60.5735L152.216 64.869L141.465 70.2443L160.807 79.9072ZM22.9701 81.0347V79.9072V58.0566V26.0429L14.3792 30.3384L2.24699 36.4124V68.8072L16.9438 61.4549V63.9639L4.01759 70.427L6.86802 71.8561L16.9438 66.8143V69.3233L9.37703 73.1106L12.6086 74.7225L16.9438 72.5549V75.0639L15.1176 75.977L16.9438 76.89V79.3991V80.8044L2.24699 88.1568V91.3883L22.9701 81.0347ZM91.8885 71.6735L77.1918 79.0259V76.5169L90.1259 70.0538L87.2754 68.6246L77.1997 73.6664V71.1574L84.7664 67.3701L81.5349 65.7504L77.1997 67.918V65.4089L79.0259 64.4959L77.1997 63.5828V62.1774V61.0738V59.6684L91.8965 52.316V49.0845L71.1733 59.4461V82.4162V114.43L79.7643 110.134L91.9044 104.068V71.6735H91.8885ZM91.8885 68.4182V66.3062L89.7765 67.3622L91.8885 68.4182ZM87.2675 66.1077L91.8885 63.7971V60.5656L84.036 64.4879L87.2675 66.1077ZM81.5269 63.2413L91.8885 58.0566V54.8251L78.2954 61.6216L81.5269 63.2413ZM45.9482 68.4182V44.8843V24.9075V14.5618L34.8165 20.1277L25.2251 24.9234V58.0566L45.9482 68.4182ZM15.8401 78.8512L12.6086 77.2394L2.24699 82.4162V85.6478L15.8401 78.8512ZM10.0996 75.9849L6.86802 74.3731L2.24699 76.6836V79.9152L10.0996 75.9849ZM4.35901 73.1106L2.24699 72.0546V74.1667L4.35901 73.1106ZM252.695 118.066L244.104 122.362L233.354 127.737L252.688 137.408V118.066H252.695ZM68.9184 118.066L60.3274 122.362L49.5768 127.737L68.9104 137.408V118.066H68.9184ZM25.2171 79.9072L33.8081 75.6117L44.5588 70.2364L25.2171 60.5735V79.9072ZM25.2171 22.4144L33.8081 18.1189L44.5588 12.7435L25.2171 3.07274V22.4144ZM68.9184 3.07274L48.1952 13.4343V68.4182L59.327 62.8523L68.9184 58.0566V3.07274ZM68.9184 60.5735L60.3274 64.869L49.5768 70.2443L68.9104 79.9152V60.5735H68.9184ZM160.807 118.066L152.216 122.362L141.465 127.737L160.799 137.408V118.066H160.807ZM129.73 73.595L136.447 70.2364L117.114 60.5656V79.8993L129.73 73.595ZM117.106 22.4144L125.697 18.1189L136.447 12.7435L117.106 3.07274V22.4144ZM68.9184 233.028L60.3274 237.324L49.5768 242.699L68.9104 252.37V233.028H68.9184ZM25.2171 252.37L45.9403 242.008V187.024L34.8085 192.59L25.2171 197.386V252.37ZM25.2171 194.869L33.8081 190.574L44.5588 185.198L25.2251 175.527V194.869H25.2171ZM25.2171 137.376L33.8081 133.081L44.5588 127.705L25.2251 118.035V137.376H25.2171ZM160.807 233.028L152.216 237.324L141.465 242.699L160.799 252.37V233.028H160.807ZM117.106 252.37L137.829 242.008V187.024L126.697 192.59L117.106 197.386V252.37ZM129.73 188.565L136.447 185.206L117.114 175.535V194.869L129.73 188.565ZM117.106 137.376L125.697 133.081L136.447 127.705L117.114 118.035V137.376H117.106Z" fill="white" fill-opacity="0.08"/>
</svg>
