<svg width="20" height="20" viewBox="0 0 20 20" fill="none" xmlns="http://www.w3.org/2000/svg">
<path fill-rule="evenodd" clip-rule="evenodd" d="M10.8231 0.0968145C11.911 0.232595 12.7902 0.494682 13.7548 0.965192C14.7035 1.42941 15.3107 1.86833 16.114 2.66724C16.8667 3.42195 17.2842 3.99353 17.727 4.88085C18.3437 6.11872 18.6947 7.59024 18.7548 9.21018C18.777 9.76277 18.7611 9.88596 18.6346 10.0438C18.3943 10.3502 17.8661 10.2996 17.6859 9.95542C17.6289 9.84173 17.6131 9.74388 17.5941 9.30176C17.5625 8.62283 17.5151 8.18391 17.4202 7.6597C17.047 5.604 16.0603 3.96195 14.4853 2.78408C13.1728 1.79887 11.8161 1.31886 10.0388 1.21466C9.43786 1.17993 9.3335 1.15785 9.19752 1.05363C8.94446 0.854677 8.93186 0.387342 9.17535 0.169456C9.324 0.0336465 9.42835 0.0147103 9.94387 0.0305008C10.2127 0.0399692 10.608 0.0715497 10.8231 0.0968145V0.0968145Z" fill="#212529"/>
<path fill-rule="evenodd" clip-rule="evenodd" d="M3.86128 0.0920686C3.972 0.129948 4.14277 0.218352 4.24082 0.28152C4.84167 0.679417 6.51469 2.81721 7.06184 3.88456C7.3749 4.494 7.47925 4.94557 7.38126 5.2803C7.28 5.64028 7.11244 5.82976 6.36289 6.43291C6.06244 6.67603 5.78096 6.9255 5.73672 6.99182C5.62285 7.15604 5.53111 7.47812 5.53111 7.70548C5.53432 8.23284 5.87585 9.18965 6.32495 9.92542C6.6728 10.497 7.29582 11.2295 7.91254 11.7917C8.63676 12.4548 9.2756 12.9063 9.99668 13.2632C10.9233 13.7242 11.4894 13.8411 11.9037 13.6485C12.0081 13.6011 12.1187 13.5379 12.1536 13.5095C12.1852 13.4811 12.4287 13.1842 12.6944 12.8559C13.2067 12.2116 13.3237 12.1075 13.6748 11.9875C14.1207 11.8359 14.5761 11.8769 15.0347 12.1106C15.3826 12.2906 16.1416 12.7611 16.6318 13.1021C17.2769 13.5537 18.6558 14.6779 18.8424 14.9021C19.1713 15.3063 19.2283 15.8241 19.0068 16.3958C18.7728 16.9988 17.862 18.1294 17.2263 18.6125C16.6507 19.0483 16.2428 19.2156 15.7051 19.2409C15.2624 19.263 15.079 19.2251 14.5128 18.9914C10.0726 17.1631 6.52735 14.4348 3.71263 10.6864C2.24206 8.72861 1.12249 6.69816 0.35712 4.59191C-0.0887702 3.36355 -0.110893 2.82987 0.25592 2.20147C0.414081 1.93623 1.08771 1.2794 1.57789 0.913111C2.39386 0.306798 2.77019 0.0825834 3.07064 0.0194449C3.2762 -0.0247743 3.63355 0.00995806 3.86128 0.0920686V0.0920686Z" fill="#212529"/>
<path fill-rule="evenodd" clip-rule="evenodd" d="M11.2754 2.30036C13.1951 2.58138 14.6815 3.4719 15.6555 4.91816C16.2027 5.73287 16.5442 6.68968 16.6612 7.71595C16.7023 8.09173 16.7023 8.77698 16.6581 8.89067C16.6169 8.99801 16.4841 9.14329 16.3702 9.20326C16.2469 9.26643 15.9845 9.26013 15.839 9.18432C15.5954 9.06119 15.5227 8.86538 15.5227 8.33488C15.5227 7.51703 15.3108 6.65494 14.944 5.98549C14.5265 5.2213 13.9193 4.58975 13.1793 4.1508C12.5436 3.77187 11.6043 3.49084 10.7472 3.42138C10.4373 3.39609 10.2665 3.33295 10.1495 3.19717C9.96926 2.9919 9.95023 2.71401 10.102 2.48351C10.2665 2.22772 10.5195 2.18667 11.2754 2.30036V2.30036Z" fill="#212529"/>
<path fill-rule="evenodd" clip-rule="evenodd" d="M12.2808 4.43831C12.9039 4.57094 13.3815 4.80777 13.7894 5.18987C14.3144 5.68561 14.6022 6.28561 14.7287 7.14769C14.8141 7.70978 14.7793 7.93081 14.58 8.11397C14.3935 8.28448 14.0488 8.29081 13.84 8.12976C13.6882 8.01607 13.6408 7.89608 13.606 7.57085C13.5649 7.13822 13.489 6.83507 13.3593 6.55402C13.081 5.9572 12.5908 5.64773 11.7622 5.54668C11.3732 5.4993 11.2562 5.4551 11.1297 5.30671C10.8988 5.03197 10.9873 4.58673 11.3068 4.42251C11.427 4.36252 11.4776 4.3562 11.7432 4.37199C11.9077 4.38146 12.1512 4.40987 12.2808 4.43831V4.43831Z" fill="#212529"/>
</svg>
