<svg width="357" height="126" viewBox="0 0 357 126" fill="none" xmlns="http://www.w3.org/2000/svg">
<path d="M5.80446e-06 7.55875C6.00428e-06 3.48132 3.47109 0.266826 7.53652 0.579341L357 27.443L357 126L7 126C3.13401 126 1.53588e-07 122.866 3.43049e-07 119L5.80446e-06 7.55875Z" fill="#111111"/>
</svg>
